{
    "puestoId": 3,
    "documentoIdentidad": "68623222",
    "documentoRespaldoId": "C.I",
    "departamentoId": 6,
    "primerApellido": "Messi",
    "segundoApellido": "Cuccittini",
    "nombres": "Lionel",
    "fechaNacimiento": "1987-06-24",
    "paisId": 31,
    "generoId": 2,
    "estadoCivilId": "C",
    "telefonoFijo": null,
    "telefonoCelular": "70325192",
    "emailPersonal": "messi@hotmail.com",
    "domicilioLegal": "Av. Argentina Nro. 38",
    "licenciaConducir": true,
    "licenciaMotocicleta": false,
    "fotoRuta": "rutaprueba",
    "estudiosRealizados": [
        {
            "centroEducativo": "Gral. Roca",
            "tituloObtenido": null,
            "nivelEducativoId": 1,
            "tipo": 1,
            "ciudad": "Sucre",
            "paisId": 31,
            "fechaInicio": "1988-01-01",
            "fechaFinalizacion": "1993-12-31",
            "estudiandoActualmente": false
        },
        {
            "centroEducativo": "Juana Azurduy",
            "tituloObtenido": null,
            "nivelEducativoId": 2,
            "tipo": 2,
            "ciudad": "Sucre",
            "paisId": 31,
            "fechaInicio": "1994-01-01",
            "fechaFinalizacion": "1996-12-31",
            "estudiandoActualmente": false
        },
        {
            "centroEducativo": "USFX",
            "tituloObtenido": "Ing. Mecanico",
            "nivelEducativoId": 12,
            "tipo": 3,
            "ciudad": "Sucre",
            "paisId": 31,
            "fechaInicio": "1998-01-01",
            "fechaFinalizacion": "2004-12-31",
            "estudiandoActualmente": false
        },
        {
            "centroEducativo": "SUMATRA",
            "tituloObtenido": "Prevencion de Incendios",
            "nivelEducativoId": 17,
            "tipo": 3,
            "ciudad": "Sucre",
            "paisId": 31,
            "fechaInicio": "2003-01-21",
            "fechaFinalizacion": "2003-03-21",
            "estudiandoActualmente": false
        },
        {
            "centroEducativo": "CISCO",
            "tituloObtenido": "CCNA v1",
            "nivelEducativoId": 16,
            "tipo": 3,
            "ciudad": "Sucre",
            "paisId": 31,
            "fechaInicio": "2004-07-22",
            "fechaFinalizacion": "2004-12-21",
            "estudiandoActualmente": false
        }
    ],
    "experienciaLaborales": [
        {
            "nombreInstitucion": "HANSA LTDA",
            "cargo": "Tecnico FTTH",
            "funcionGeneral": "Mantenimiento de Telecentros y VSAT",
            "paisId": 31,
            "ciudad": "Sucre",
            "fechaInicio": "2021-01-01",
            "fechaFinalizacion": "2022-10-31"
        },
        {
            "nombreInstitucion": "SAMSUNG SRL",
            "cargo": "Tecnico FTTH",
            "funcionGeneral": "Funcionario planta externa",
            "paisId": 31,
            "ciudad": "Sucre",
            "fechaInicio": "2020-01-20",
            "fechaFinalizacion": "2020-12-31"
        },
        {
            "nombreInstitucion": "Apple",
            "cargo": "Supervisor de Proyecto",
            "funcionGeneral": "Diseño general",
            "paisId": 31,
            "ciudad": "Sucre",
            "fechaInicio": "2015-04-20",
            "fechaFinalizacion": "2019-12-31"
        }
    ],
    "habilidades": [
        {
            "descripcion": "Lectura rapida",
            "tiempo": 2,
            "unidadMedidaId": 2
        },
        {
            "descripcion": "Trabajo bajo presion",
            "tiempo": 3,
            "unidadMedidaId": 3
        }
    ],
    "idiomas": [
        {
            "idiomaDescripcion": "Español",
            "nivelEscrito": "Alto",
            "nivelOral": "Alto",
            "nivelLectura": "Alto"
        },
        {
            "idiomaDescripcion": "Ucraniano",
            "nivelEscrito": "Alto",
            "nivelOral": "Alto",
            "nivelLectura": "Alto"
        }
    ]
}
